<svg width="25" height="25" viewBox="0 0 25 25" fill="none" xmlns="http://www.w3.org/2000/svg">
<circle cx="11" cy="11" r="9.5" stroke="#6D6E70" stroke-width="3"/>
<line x1="17.0607" y1="17.9393" x2="23.0607" y2="23.9393" stroke="#6D6E70" stroke-width="3"/>
</svg>
